Data handling and EDA: Text
…
# nm_dataDOSE500
nm_data %>% filter(DOSE >= 500)

## # A tibble: 18,947 x 38
##    C      NROW    PN   PID    ID  PART  PANL  PERD   GRP  SDMD  COAD  DRUG  DOSE
##    <chr> <dbl> <dbl> <dbl> <dbl> <dbl> <dbl> <dbl> <dbl> <dbl> <dbl> <dbl> <dbl>
##  1 <NA>      1     1     1  1001     1     1     4     8     1     0     1   500
##  2 <NA>      2     1     1  1001     1     1     4     8     1     0     1   500
##  3 <NA>      3     1     1  1001     1     1     4     8     1     0     1   500
##  4 <NA>      4     1     1  1001     1     1     4     8     1     0     1   500
##  5 <NA>      5     1     1  1001     1     1     4     8     1     0     1   500
##  6 <NA>      6     1     1  1001     1     1     4     8     1     0     1   500
##  7 <NA>      7     1     1  1001     1     1     4     8     1     0     1   500
##  8 <NA>      8     1     1  1001     1     1     4     8     1     0     1   500
##  9 <NA>      9     1     1  1001     1     1     4     8     1     0     1   500
## 10 <NA>     10     1     1  1001     1     1     4     8     1     0     1   500
## # ... with 18,937 more rows, and 25 more variables: DAY <dbl>, RNTM <dbl>,
## #   TIME <dbl>, TSLD <dbl>, CONC <dbl>, MDV <dbl>, EVID <dbl>, AMT <dbl>,
## #   RATE <dbl>, ADDL <dbl>, II <dbl>, CMT <dbl>, CRCL <dbl>, RENL <dbl>,
## #   WT <dbl>, WTBN <dbl>, AGE <dbl>, MALE <dbl>, HLTH <dbl>, HT <dbl>,
## #   RACE <dbl>, SECR <dbl>, RICH <dbl>, INFC <dbl>, TREAT <chr>

# 
# nm_dataDOSE500RACE1
nm_data %>% filter(DOSE >= 500 & RACE == 1)

## # A tibble: 15,188 x 38
##    C      NROW    PN   PID    ID  PART  PANL  PERD   GRP  SDMD  COAD  DRUG  DOSE
##    <chr> <dbl> <dbl> <dbl> <dbl> <dbl> <dbl> <dbl> <dbl> <dbl> <dbl> <dbl> <dbl>
##  1 <NA>     62     1     2  1002     1     1     4     8     1     0     1   500
##  2 <NA>     63     1     2  1002     1     1     4     8     1     0     1   500
##  3 <NA>     64     1     2  1002     1     1     4     8     1     0     1   500
##  4 <NA>     65     1     2  1002     1     1     4     8     1     0     1   500
##  5 <NA>     66     1     2  1002     1     1     4     8     1     0     1   500
##  6 <NA>     67     1     2  1002     1     1     4     8     1     0     1   500
##  7 <NA>     68     1     2  1002     1     1     4     8     1     0     1   500
##  8 <NA>     69     1     2  1002     1     1     4     8     1     0     1   500
##  9 <NA>     70     1     2  1002     1     1     4     8     1     0     1   500
## 10 <NA>     71     1     2  1002     1     1     4     8     1     0     1   500
## # ... with 15,178 more rows, and 25 more variables: DAY <dbl>, RNTM <dbl>,
## #   TIME <dbl>, TSLD <dbl>, CONC <dbl>, MDV <dbl>, EVID <dbl>, AMT <dbl>,
## #   RATE <dbl>, ADDL <dbl>, II <dbl>, CMT <dbl>, CRCL <dbl>, RENL <dbl>,
## #   WT <dbl>, WTBN <dbl>, AGE <dbl>, MALE <dbl>, HLTH <dbl>, HT <dbl>,
## #   RACE <dbl>, SECR <dbl>, RICH <dbl>, INFC <dbl>, TREAT <chr>
…
# nm_dataID
nm_data %>% distinct(ID)

## # A tibble: 921 x 1
##       ID
##    <dbl>
##  1  1001
##  2  1002
##  3  1003
##  4  1004
##  5  1005
##  6  1006
##  7  1007
##  8  1008
##  9  1009
## 10  1010
## # ... with 911 more rows

# nm_dataID()
nm_data %>% distinct(ID, .keep_all = TRUE)

## # A tibble: 921 x 38
##    C      NROW    PN   PID    ID  PART  PANL  PERD   GRP  SDMD  COAD  DRUG  DOSE
##    <chr> <dbl> <dbl> <dbl> <dbl> <dbl> <dbl> <dbl> <dbl> <dbl> <dbl> <dbl> <dbl>
##  1 <NA>      1     1     1  1001     1     1     4     8     1     0     1   500
##  2 <NA>     62     1     2  1002     1     1     4     8     1     0     1   500
##  3 <NA>    152     1     3  1003     1     1     4     8     1     0     1   500
##  4 <NA>    242     1     4  1004     1     1     4     8     1     0     1   500
##  5 <NA>    332     1     5  1005     1     1     4     8     1     0     1   500
##  6 <NA>    422     1     6  1006     1     1     4     8     1     0     1   500
##  7 <NA>    512     1     7  1007     1     1     4     8     1     0     1   500
##  8 <NA>    573     1     8  1008     1     1     4     8     1     0     1   500
##  9 <NA>    663     1     9  1009     1     2     4     8     1     0     1   500
## 10 <NA>    724     1    10  1010     1     2     4     8     1     0     1   500
## # ... with 911 more rows, and 25 more variables: DAY <dbl>, RNTM <dbl>,
## #   TIME <dbl>, TSLD <dbl>, CONC <dbl>, MDV <dbl>, EVID <dbl>, AMT <dbl>,
## #   RATE <dbl>, ADDL <dbl>, II <dbl>, CMT <dbl>, CRCL <dbl>, RENL <dbl>,
## #   WT <dbl>, WTBN <dbl>, AGE <dbl>, MALE <dbl>, HLTH <dbl>, HT <dbl>,
## #   RACE <dbl>, SECR <dbl>, RICH <dbl>, INFC <dbl>, TREAT <chr>
…
# 
nm_data_ibw <- read_csv(paste0(path, "/Data/1_data_handling/nm_data_ibw.csv"))

## 
## -- Column specification --------------------------------------------------------
## cols(
##   ID = col_double(),
##   time = col_double(),
##   ibw = col_double()
## )

# nm_datanm_data_ibwID
nm_data %>% left_join(nm_data_ibw, by="ID")

## # A tibble: 1,419,374 x 40
##    C      NROW    PN   PID    ID  PART  PANL  PERD   GRP  SDMD  COAD  DRUG  DOSE
##    <chr> <dbl> <dbl> <dbl> <dbl> <dbl> <dbl> <dbl> <dbl> <dbl> <dbl> <dbl> <dbl>
##  1 <NA>      1     1     1  1001     1     1     4     8     1     0     1   500
##  2 <NA>      1     1     1  1001     1     1     4     8     1     0     1   500
##  3 <NA>      1     1     1  1001     1     1     4     8     1     0     1   500
##  4 <NA>      1     1     1  1001     1     1     4     8     1     0     1   500
##  5 <NA>      1     1     1  1001     1     1     4     8     1     0     1   500
##  6 <NA>      1     1     1  1001     1     1     4     8     1     0     1   500
##  7 <NA>      1     1     1  1001     1     1     4     8     1     0     1   500
##  8 <NA>      1     1     1  1001     1     1     4     8     1     0     1   500
##  9 <NA>      1     1     1  1001     1     1     4     8     1     0     1   500
## 10 <NA>      1     1     1  1001     1     1     4     8     1     0     1   500
## # ... with 1,419,364 more rows, and 27 more variables: DAY <dbl>, RNTM <dbl>,
## #   TIME <dbl>, TSLD <dbl>, CONC <dbl>, MDV <dbl>, EVID <dbl>, AMT <dbl>,
## #   RATE <dbl>, ADDL <dbl>, II <dbl>, CMT <dbl>, CRCL <dbl>, RENL <dbl>,
## #   WT <dbl>, WTBN <dbl>, AGE <dbl>, MALE <dbl>, HLTH <dbl>, HT <dbl>,
## #   RACE <dbl>, SECR <dbl>, RICH <dbl>, INFC <dbl>, TREAT <chr>, time <dbl>,
## #   ibw <dbl>

# nm_datanm_data_ibwID, TIME(="time")
nm_data %>% left_join(nm_data_ibw, by=c("ID", "TIME"="time"))

## # A tibble: 34,433 x 39
##    C      NROW    PN   PID    ID  PART  PANL  PERD   GRP  SDMD  COAD  DRUG  DOSE
##    <chr> <dbl> <dbl> <dbl> <dbl> <dbl> <dbl> <dbl> <dbl> <dbl> <dbl> <dbl> <dbl>
##  1 <NA>      1     1     1  1001     1     1     4     8     1     0     1   500
##  2 <NA>      2     1     1  1001     1     1     4     8     1     0     1   500
##  3 <NA>      3     1     1  1001     1     1     4     8     1     0     1   500
##  4 <NA>      4     1     1  1001     1     1     4     8     1     0     1   500
##  5 <NA>      5     1     1  1001     1     1     4     8     1     0     1   500
##  6 <NA>      6     1     1  1001     1     1     4     8     1     0     1   500
##  7 <NA>      7     1     1  1001     1     1     4     8     1     0     1   500
##  8 <NA>      8     1     1  1001     1     1     4     8     1     0     1   500
##  9 <NA>      9     1     1  1001     1     1     4     8     1     0     1   500
## 10 <NA>     10     1     1  1001     1     1     4     8     1     0     1   500
## # ... with 34,423 more rows, and 26 more variables: DAY <dbl>, RNTM <dbl>,
## #   TIME <dbl>, TSLD <dbl>, CONC <dbl>, MDV <dbl>, EVID <dbl>, AMT <dbl>,
## #   RATE <dbl>, ADDL <dbl>, II <dbl>, CMT <dbl>, CRCL <dbl>, RENL <dbl>,
## #   WT <dbl>, WTBN <dbl>, AGE <dbl>, MALE <dbl>, HLTH <dbl>, HT <dbl>,
## #   RACE <dbl>, SECR <dbl>, RICH <dbl>, INFC <dbl>, TREAT <chr>, ibw <dbl>

# 
nm_data_br <- nm_data %>% filter(TIME == 0)
# nm_datanm_data_br
nm_data %>% bind_rows(nm_data_br)

## # A tibble: 37,718 x 38
##    C      NROW    PN   PID    ID  PART  PANL  PERD   GRP  SDMD  COAD  DRUG  DOSE
##    <chr> <dbl> <dbl> <dbl> <dbl> <dbl> <dbl> <dbl> <dbl> <dbl> <dbl> <dbl> <dbl>
##  1 <NA>      1     1     1  1001     1     1     4     8     1     0     1   500
##  2 <NA>      2     1     1  1001     1     1     4     8     1     0     1   500
##  3 <NA>      3     1     1  1001     1     1     4     8     1     0     1   500
##  4 <NA>      4     1     1  1001     1     1     4     8     1     0     1   500
##  5 <NA>      5     1     1  1001     1     1     4     8     1     0     1   500
##  6 <NA>      6     1     1  1001     1     1     4     8     1     0     1   500
##  7 <NA>      7     1     1  1001     1     1     4     8     1     0     1   500
##  8 <NA>      8     1     1  1001     1     1     4     8     1     0     1   500
##  9 <NA>      9     1     1  1001     1     1     4     8     1     0     1   500
## 10 <NA>     10     1     1  1001     1     1     4     8     1     0     1   500
## # ... with 37,708 more rows, and 25 more variables: DAY <dbl>, RNTM <dbl>,
## #   TIME <dbl>, TSLD <dbl>, CONC <dbl>, MDV <dbl>, EVID <dbl>, AMT <dbl>,
## #   RATE <dbl>, ADDL <dbl>, II <dbl>, CMT <dbl>, CRCL <dbl>, RENL <dbl>,
## #   WT <dbl>, WTBN <dbl>, AGE <dbl>, MALE <dbl>, HLTH <dbl>, HT <dbl>,
## #   RACE <dbl>, SECR <dbl>, RICH <dbl>, INFC <dbl>, TREAT <chr>
…
arrange

select

# nm_dataID, TIME, MDV() 
nm_data %>% arrange(ID, TIME, desc(MDV))

## # A tibble: 34,433 x 38
##    C      NROW    PN   PID    ID  PART  PANL  PERD   GRP  SDMD  COAD  DRUG  DOSE
##    <chr> <dbl> <dbl> <dbl> <dbl> <dbl> <dbl> <dbl> <dbl> <dbl> <dbl> <dbl> <dbl>
##  1 <NA>      1     1     1  1001     1     1     4     8     1     0     1   500
##  2 <NA>      2     1     1  1001     1     1     4     8     1     0     1   500
##  3 <NA>     17     1     1  1001     1     1     1     1     1     0     2    25
##  4 <NA>     18     1     1  1001     1     1     1     1     1     0     2    25
##  5 <NA>     19     1     1  1001     1     1     1     1     1     0     2    25
##  6 <NA>      3     1     1  1001     1     1     4     8     1     0     1   500
##  7 <NA>      4     1     1  1001     1     1     4     8     1     0     1   500
##  8 <NA>     20     1     1  1001     1     1     1     1     1     0     2    25
##  9 <NA>      5     1     1  1001     1     1     4     8     1     0     1   500
## 10 <NA>     21     1     1  1001     1     1     1     1     1     0     2    25
## # ... with 34,423 more rows, and 25 more variables: DAY <dbl>, RNTM <dbl>,
## #   TIME <dbl>, TSLD <dbl>, CONC <dbl>, MDV <dbl>, EVID <dbl>, AMT <dbl>,
## #   RATE <dbl>, ADDL <dbl>, II <dbl>, CMT <dbl>, CRCL <dbl>, RENL <dbl>,
## #   WT <dbl>, WTBN <dbl>, AGE <dbl>, MALE <dbl>, HLTH <dbl>, HT <dbl>,
## #   RACE <dbl>, SECR <dbl>, RICH <dbl>, INFC <dbl>, TREAT <chr>

# nm_dataID, DOSE, RACE
nm_data %>% select(ID, DOSE, RACE)

## # A tibble: 34,433 x 3
##       ID  DOSE  RACE
##    <dbl> <dbl> <dbl>
##  1  1001   500     2
##  2  1001   500     2
##  3  1001   500     2
##  4  1001   500     2
##  5  1001   500     2
##  6  1001   500     2
##  7  1001   500     2
##  8  1001   500     2
##  9  1001   500     2
## 10  1001   500     2
## # ... with 34,423 more rows

# nm_dataWT
nm_data %>% select(-WT)

## # A tibble: 34,433 x 37
##    C      NROW    PN   PID    ID  PART  PANL  PERD   GRP  SDMD  COAD  DRUG  DOSE
##    <chr> <dbl> <dbl> <dbl> <dbl> <dbl> <dbl> <dbl> <dbl> <dbl> <dbl> <dbl> <dbl>
##  1 <NA>      1     1     1  1001     1     1     4     8     1     0     1   500
##  2 <NA>      2     1     1  1001     1     1     4     8     1     0     1   500
##  3 <NA>      3     1     1  1001     1     1     4     8     1     0     1   500
##  4 <NA>      4     1     1  1001     1     1     4     8     1     0     1   500
##  5 <NA>      5     1     1  1001     1     1     4     8     1     0     1   500
##  6 <NA>      6     1     1  1001     1     1     4     8     1     0     1   500
##  7 <NA>      7     1     1  1001     1     1     4     8     1     0     1   500
##  8 <NA>      8     1     1  1001     1     1     4     8     1     0     1   500
##  9 <NA>      9     1     1  1001     1     1     4     8     1     0     1   500
## 10 <NA>     10     1     1  1001     1     1     4     8     1     0     1   500
## # ... with 34,423 more rows, and 24 more variables: DAY <dbl>, RNTM <dbl>,
## #   TIME <dbl>, TSLD <dbl>, CONC <dbl>, MDV <dbl>, EVID <dbl>, AMT <dbl>,
## #   RATE <dbl>, ADDL <dbl>, II <dbl>, CMT <dbl>, CRCL <dbl>, RENL <dbl>,
## #   WTBN <dbl>, AGE <dbl>, MALE <dbl>, HLTH <dbl>, HT <dbl>, RACE <dbl>,
## #   SECR <dbl>, RICH <dbl>, INFC <dbl>, TREAT <chr>
…
mutate : 

expand.grid : 

sample_n : 

replace=TRUE

set.seed()

# nm_dataIBW(=22*(HT/100)^2)
nm_data %>% mutate(IBW = 22 * (HT/100)^2)

## # A tibble: 34,433 x 39
##    C      NROW    PN   PID    ID  PART  PANL  PERD   GRP  SDMD  COAD  DRUG  DOSE
##    <chr> <dbl> <dbl> <dbl> <dbl> <dbl> <dbl> <dbl> <dbl> <dbl> <dbl> <dbl> <dbl>
##  1 <NA>      1     1     1  1001     1     1     4     8     1     0     1   500
##  2 <NA>      2     1     1  1001     1     1     4     8     1     0     1   500
##  3 <NA>      3     1     1  1001     1     1     4     8     1     0     1   500
##  4 <NA>      4     1     1  1001     1     1     4     8     1     0     1   500
##  5 <NA>      5     1     1  1001     1     1     4     8     1     0     1   500
##  6 <NA>      6     1     1  1001     1     1     4     8     1     0     1   500
##  7 <NA>      7     1     1  1001     1     1     4     8     1     0     1   500
##  8 <NA>      8     1     1  1001     1     1     4     8     1     0     1   500
##  9 <NA>      9     1     1  1001     1     1     4     8     1     0     1   500
## 10 <NA>     10     1     1  1001     1     1     4     8     1     0     1   500
## # ... with 34,423 more rows, and 26 more variables: DAY <dbl>, RNTM <dbl>,
## #   TIME <dbl>, TSLD <dbl>, CONC <dbl>, MDV <dbl>, EVID <dbl>, AMT <dbl>,
## #   RATE <dbl>, ADDL <dbl>, II <dbl>, CMT <dbl>, CRCL <dbl>, RENL <dbl>,
## #   WT <dbl>, WTBN <dbl>, AGE <dbl>, MALE <dbl>, HLTH <dbl>, HT <dbl>,
## #   RACE <dbl>, SECR <dbl>, RICH <dbl>, INFC <dbl>, TREAT <chr>, IBW <dbl>

# nm_dataIBW()
nm_data %>% mutate(ifelse(MALE == 0, 50 + 0.91*(HT-152.4), 45.5 + 0.91*(HT-152.4)))

## # A tibble: 34,433 x 39
##    C      NROW    PN   PID    ID  PART  PANL  PERD   GRP  SDMD  COAD  DRUG  DOSE
##    <chr> <dbl> <dbl> <dbl> <dbl> <dbl> <dbl> <dbl> <dbl> <dbl> <dbl> <dbl> <dbl>
##  1 <NA>      1     1     1  1001     1     1     4     8     1     0     1   500
##  2 <NA>      2     1     1  1001     1     1     4     8     1     0     1   500
##  3 <NA>      3     1     1  1001     1     1     4     8     1     0     1   500
##  4 <NA>      4     1     1  1001     1     1     4     8     1     0     1   500
##  5 <NA>      5     1     1  1001     1     1     4     8     1     0     1   500
##  6 <NA>      6     1     1  1001     1     1     4     8     1     0     1   500
##  7 <NA>      7     1     1  1001     1     1     4     8     1     0     1   500
##  8 <NA>      8     1     1  1001     1     1     4     8     1     0     1   500
##  9 <NA>      9     1     1  1001     1     1     4     8     1     0     1   500
## 10 <NA>     10     1     1  1001     1     1     4     8     1     0     1   500
## # ... with 34,423 more rows, and 26 more variables: DAY <dbl>, RNTM <dbl>,
## #   TIME <dbl>, TSLD <dbl>, CONC <dbl>, MDV <dbl>, EVID <dbl>, AMT <dbl>,
## #   RATE <dbl>, ADDL <dbl>, II <dbl>, CMT <dbl>, CRCL <dbl>, RENL <dbl>,
## #   WT <dbl>, WTBN <dbl>, AGE <dbl>, MALE <dbl>, HLTH <dbl>, HT <dbl>,
## #   RACE <dbl>, SECR <dbl>, RICH <dbl>, INFC <dbl>, TREAT <chr>,
## #   `ifelse(...)` <dbl>

# ID=1~10TIME1~24tibblenm_data_e
nm_data_e <- expand.grid(ID = 1:10, TIME=1:24) %>% as_tibble()

# nm_dataID1000
nm_data %>% distinct(ID, .keep_all = TRUE) %>% sample_n(1000, replace=TRUE)

## # A tibble: 1,000 x 38
##    C      NROW    PN    PID     ID  PART  PANL  PERD   GRP  SDMD  COAD  DRUG
##    <chr> <dbl> <dbl>  <dbl>  <dbl> <dbl> <dbl> <dbl> <dbl> <dbl> <dbl> <dbl>
##  1 <NA>  17005     3 5.10e6 3.51e7     1     3     1     8     2     0     1
##  2 <NA>  25810     3 8.70e6 3.87e7     1     2     1    10     2     1     1
##  3 <NA>  29648     5 1.00e5 5.02e3     1     4     1    15     1     1     1
##  4 <NA>  33420    13 1.00e5 1.31e7     1     1     1    11     1     1     1
##  5 <NA>  33646    13 1.00e5 1.31e7     1     1     1    11     1     1     1
##  6 <NA>  28175     4 9.70e6 7.24e3     1     2     1    10     2     1     1
##  7 <NA>  17039     3 5.10e6 3.51e7     1     2     1    10     2     1     1
##  8 <NA>  13392     3 3.50e6 3.35e7     1     1     1    11     2     1     1
##  9 <NA>  26773     4 4.70e6 7.06e3     1     1     1    11     2     1     1
## 10 <NA>  30826     7 1.00e5 7.10e6     1     1     1    11     2     1     1
## # ... with 990 more rows, and 26 more variables: DOSE <dbl>, DAY <dbl>,
## #   RNTM <dbl>, TIME <dbl>, TSLD <dbl>, CONC <dbl>, MDV <dbl>, EVID <dbl>,
## #   AMT <dbl>, RATE <dbl>, ADDL <dbl>, II <dbl>, CMT <dbl>, CRCL <dbl>,
## #   RENL <dbl>, WT <dbl>, WTBN <dbl>, AGE <dbl>, MALE <dbl>, HLTH <dbl>,
## #   HT <dbl>, RACE <dbl>, SECR <dbl>, RICH <dbl>, INFC <dbl>, TREAT <chr>
…
