Data handling and EDA: For Presentation
…
## `mutate_if()` ignored the following grouping variables:
## Column `ID`

print(nm_stats)

## # A tibble: 24 x 12
##    Covariate Stats    `1`   `2`   `3`   `4`   `5`   `7`   `9`  `12`  `13`  `19`
##    <fct>     <fct>  <dbl> <dbl> <dbl> <dbl> <dbl> <dbl> <dbl> <dbl> <dbl> <dbl>
##  1 AGE       n      83    18    290   349    48   17    36    16     50   14   
##  2 AGE       mean   28.5  54.1   56.6  49.1  59.8 31.2  43.4  34.6   57.9 43.8 
##  3 AGE       sd      6.32 17.3   17.9  18.0  12.1  5.66  8.46  8.45  16.4  8.75
##  4 AGE       median 27    61     60    50    63.5 30    42.5  34.5   59   45.5 
##  5 AGE       min    18    26     18    18    26   24    22    20     19   23   
##  6 AGE       max    45    75     90    88    75   42    55    45     80   55   
##  7 WT        n      83    18    290   349    48   17    36    16     50   14   
##  8 WT        mean   75.6  65.0   75.9  78.4  81.6 83.9  75.1  62.5   74.8 77.5 
##  9 WT        sd     21.6   5.03  15.7  17.8  14.1 13.5  11.1   7.76  20.5 12.7 
## 10 WT        median 78.1  63.8   75.8  76    81.8 85.3  76.2  61.6   75.0 77.6 
## # ... with 14 more rows
…
