Data handling and EDA: For Presentation
…
## # A tibble: 5 x 3
##      ID  TIME   MDV
##   <dbl> <dbl> <dbl>
## 1     1     0     1
## 2     1     0     0
## 3     1     2     0
## 4     2     0     1
## 5     2     2     0

nm_data_e <- expand.grid(ID = 1:10, TIME=1:24) %>% as_tibble()

nm_data %>% group_by(ID) %>% slice(1) %>% ungroup() %>% sample_n(1000, replace = TRUE)

## # A tibble: 1,000 x 38
##    C      NROW    PN    PID     ID  PART  PANL  PERD   GRP  SDMD  COAD  DRUG
##    <chr> <dbl> <dbl>  <dbl>  <dbl> <dbl> <dbl> <dbl> <dbl> <dbl> <dbl> <dbl>
##  1 <NA>  27276     4 6.50e6 7.13e3     1     2     1    10     2     1     1
##  2 <NA>  13352     3 3.50e6 3.35e7     1     1     1    11     2     1     1
##  3 <NA>   3571     1 4.50e1 1.04e3     2     6     1    11     2     1     1
##  4 <NA>  27276     4 6.50e6 7.13e3     1     2     1    10     2     1     1
##  5 <NA>  23693     3 8.30e6 3.83e7     1     2     1    10     2     1     1
##  6 <NA>  27774     4 7.10e6 7.19e3     1     1     1    11     2     1     1
##  7 <NA>  10251     2 1.00e5 2.02e3     1     3     1    10     1     1     1
##  8 <NA>  24397     3 8.30e6 3.83e7     1     2     1    10     2     1     1
##  9 <NA>  31020     9 1.00e5 9.10e6     1     1     1     7     1     0     2
## 10 <NA>  10655     3 2.10e6 3.21e7     1     2     1    10     2     1     1
## # ... with 990 more rows, and 26 more variables: DOSE <dbl>, DAY <dbl>,
## #   RNTM <dbl>, TIME <dbl>, TSLD <dbl>, CONC <dbl>, MDV <dbl>, EVID <dbl>,
## #   AMT <dbl>, RATE <dbl>, ADDL <dbl>, II <dbl>, CMT <dbl>, CRCL <dbl>,
## #   RENL <dbl>, WT <dbl>, WTBN <dbl>, AGE <dbl>, MALE <dbl>, HLTH <dbl>,
## #   HT <dbl>, RACE <dbl>, SECR <dbl>, RICH <dbl>, INFC <dbl>, TREAT <chr>
…
